# Fdb version 3
["biber main"] 1543943998 "main.bcf" "main.bbl" "main" 1543943998
  "main.bcf" 1543943998 91073 5443f19d9b714e38f5be157a3bbff4a7 ""
  (generated)
  "main.bbl"
  "main.blg"
["latex"] 1543944070 "main.tex" "main.dvi" "main" 1543944070
  "/usr/share/texmf-dist/tex/generic/oberdiek/ifpdf.sty" 1543696176 1300 96620a7d94bc0ceb261d968770ce8315 ""
  "/usr/share/texmf-dist/tex/latex/base/ifthen.sty" 1543696176 5161 c004ea5a189d4bdcf42e86754ad75a58 ""
  "/usr/share/texmf-dist/tex/latex/ifmtarg/ifmtarg.sty" 1543674949 318 019510c713feab56160631df4423d2aa ""
  "/usr/share/texmf-dist/tex/latex/tools/calc.sty" 1543696176 10212 357072c1d20578a30d6387d8a22e72ab ""
  "/usr/share/texmf-dist/tex/latex/xifthen/xifthen.sty" 1543674949 5689 1bfa68243e89a54479e7d0580773c57e ""
  "/usr/share/texmf-dist/web2c/texmf.cnf" 1543696176 33301 a3134070eacafb10b1f371612ce2650d ""
  "/var/lib/texmf/web2c/pdftex/latex.fmt" 1543761256 7910330 9a4a2e0aab30c48628df1af67998dcbf ""
  "hgbthesis.cls" 1538682373 16593 7441d37f592c4ccf58211d0beb9339de ""
  "main.aux" 1543943998 2032 37739ea8865b8664e0fb86bf992e8b3e ""
  "main.tex" 1543847155 3215 d957aa50a94ec1202cae3ed595be23f4 ""
  (generated)
  "main.log"
  "main.dvi"
["pdflatex"] 1543943997 "main.tex" "main.pdf" "main" 1543943997
  "/usr/share/texmf-dist/fonts/enc/dvips/lm/lm-ec.enc" 1543696176 2375 baa924870cfb487815765f9094cf3728 ""
  "/usr/share/texmf-dist/fonts/enc/dvips/lm/lm-mathit.enc" 1543696176 2405 5dcf2c1b967ee25cc46c58cd52244aed ""
  "/usr/share/texmf-dist/fonts/enc/dvips/lm/lm-mathsy.enc" 1543696176 2840 216e6e45ad352e2456e1149f28885bee ""
  "/usr/share/texmf-dist/fonts/enc/dvips/lm/lm-rm.enc" 1543696176 2327 9d6df24f9c4f7368395224341a95523a ""
  "/usr/share/texmf-dist/fonts/map/fontname/texfonts.map" 1543696176 3332 103109f5612ad95229751940c61aada0 ""
  "/usr/share/texmf-dist/fonts/tfm/jknappen/ec/ecrm1095.tfm" 1543696176 3584 929cdff2b7a8c11bd4d49fd68cb0ae70 ""
  "/usr/share/texmf-dist/fonts/tfm/public/amsfonts/cmextra/cmex7.tfm" 1543696176 1004 54797486969f23fa377b128694d548df ""
  "/usr/share/texmf-dist/fonts/tfm/public/amsfonts/cmextra/cmex8.tfm" 1543696176 988 bdf658c3bfc2d96d3c8b02cfc1c94c20 ""
  "/usr/share/texmf-dist/fonts/tfm/public/amsfonts/cmextra/cmex9.tfm" 1543696176 996 a18840b13b499c08ac2de96a99eda4bc ""
  "/usr/share/texmf-dist/fonts/tfm/public/amsfonts/symbols/msam10.tfm" 1543696176 916 f87d7c45f9c908e672703b83b72241a3 ""
  "/usr/share/texmf-dist/fonts/tfm/public/amsfonts/symbols/msam5.tfm" 1543696176 924 9904cf1d39e9767e7a3622f2a125a565 ""
  "/usr/share/texmf-dist/fonts/tfm/public/amsfonts/symbols/msam7.tfm" 1543696176 928 2dc8d444221b7a635bb58038579b861a ""
  "/usr/share/texmf-dist/fonts/tfm/public/amsfonts/symbols/msbm10.tfm" 1543696176 908 2921f8a10601f252058503cc6570e581 ""
  "/usr/share/texmf-dist/fonts/tfm/public/amsfonts/symbols/msbm5.tfm" 1543696176 940 75ac932a52f80982a9f8ea75d03a34cf ""
  "/usr/share/texmf-dist/fonts/tfm/public/amsfonts/symbols/msbm7.tfm" 1543696176 940 228d6584342e91276bf566bcf9716b83 ""
  "/usr/share/texmf-dist/fonts/tfm/public/cm/cmex10.tfm" 1543696176 992 662f679a0b3d2d53c1b94050fdaa3f50 ""
  "/usr/share/texmf-dist/fonts/tfm/public/cm/cmr10.tfm" 1543696176 1296 45809c5a464d5f32c8f98ba97c1bb47f ""
  "/usr/share/texmf-dist/fonts/tfm/public/lm/ec-lmbx10.tfm" 1543696176 12076 b54175e02101bea1addf6b2d0197ed12 ""
  "/usr/share/texmf-dist/fonts/tfm/public/lm/ec-lmr10.tfm" 1543696176 12056 7e13df7fe4cbce21b072ba7c4f4deb6e ""
  "/usr/share/texmf-dist/fonts/tfm/public/lm/ec-lmr12.tfm" 1543696176 12092 7b1546e2d096cfd5dcbd4049b0b1ec2e ""
  "/usr/share/texmf-dist/fonts/tfm/public/lm/ec-lmr5.tfm" 1543696176 12020 46464c854bf317de2a7a0bbe4a1160ca ""
  "/usr/share/texmf-dist/fonts/tfm/public/lm/ec-lmr6.tfm" 1543696176 12048 c1068d0f4772be9b0ec447692e1d6d82 ""
  "/usr/share/texmf-dist/fonts/tfm/public/lm/ec-lmr8.tfm" 1543696176 12064 a35db870f0b76c338d749c56dc030ef5 ""
  "/usr/share/texmf-dist/fonts/tfm/public/lm/ec-lmr9.tfm" 1543696176 12084 b7f5e4c003de6f57f07c7e9fee73a37c ""
  "/usr/share/texmf-dist/fonts/tfm/public/lm/ec-lmss10.tfm" 1543696176 11176 53ebf7a171df1f9447b387b178768bb5 ""
  "/usr/share/texmf-dist/fonts/tfm/public/lm/ec-lmss12.tfm" 1543696176 11232 955a7245396175d9219648eadc654ac9 ""
  "/usr/share/texmf-dist/fonts/tfm/public/lm/ec-lmss17.tfm" 1543696176 11252 57c8b53a3aeebba8c17658d4221d47ec ""
  "/usr/share/texmf-dist/fonts/tfm/public/lm/ec-lmssbx10.tfm" 1543696176 11168 06d87f5698fd1b642d96449b7c8d90b0 ""
  "/usr/share/texmf-dist/fonts/tfm/public/lm/lmmi10.tfm" 1543696176 1528 6d36b2385e0ca062a654de6ac59cb34f ""
  "/usr/share/texmf-dist/fonts/tfm/public/lm/lmmi5.tfm" 1543696176 1508 198f5b7b99b5769126de3a533f6fc334 ""
  "/usr/share/texmf-dist/fonts/tfm/public/lm/lmmi6.tfm" 1543696176 1512 94a3fd88c6f27dbd9ecb46987e297a4e ""
  "/usr/share/texmf-dist/fonts/tfm/public/lm/lmmi8.tfm" 1543696176 1520 a3fe5596932db2db2cbda300920dd4e9 ""
  "/usr/share/texmf-dist/fonts/tfm/public/lm/lmmi9.tfm" 1543696176 1524 cdf05765c2a8bdb569ea0aa208fb0947 ""
  "/usr/share/texmf-dist/fonts/tfm/public/lm/lmsy10.tfm" 1543696176 1308 02cc510f9dd6012e5815d0c0ffbf6869 ""
  "/usr/share/texmf-dist/fonts/tfm/public/lm/lmsy5.tfm" 1543696176 1296 54ed1a711e2303d5282575278e3620b0 ""
  "/usr/share/texmf-dist/fonts/tfm/public/lm/lmsy6.tfm" 1543696176 1300 b0605d44c16c22d99dc001808e4f24ea ""
  "/usr/share/texmf-dist/fonts/tfm/public/lm/lmsy8.tfm" 1543696176 1304 cdc9a17df9ef0d2dc320eff37bbab1c4 ""
  "/usr/share/texmf-dist/fonts/tfm/public/lm/lmsy9.tfm" 1543696176 1300 ca37bc0213808d24f74bf4d32f81f80d ""
  "/usr/share/texmf-dist/fonts/tfm/public/lm/rm-lmr10.tfm" 1543696176 11868 4f81e9b6033c032bdaf9884f4d7ef412 ""
  "/usr/share/texmf-dist/fonts/tfm/public/lm/rm-lmr5.tfm" 1543696176 11804 aefb10c002e6492c25236524a447f969 ""
  "/usr/share/texmf-dist/fonts/tfm/public/lm/rm-lmr6.tfm" 1543696176 11836 e3b6ce3e601aec94f64a536e7f4224d5 ""
  "/usr/share/texmf-dist/fonts/tfm/public/lm/rm-lmr8.tfm" 1543696176 11864 309fd7f43e4a0ba39f6f7644d76e8edf ""
  "/usr/share/texmf-dist/fonts/tfm/public/lm/rm-lmr9.tfm" 1543696176 11884 c93929a6974dce79eabb778f219d7e18 ""
  "/usr/share/texmf-dist/fonts/type1/public/amsfonts/cm/cmex10.pfb" 1543696176 30251 6afa5cb1d0204815a708a080681d4674 ""
  "/usr/share/texmf-dist/fonts/type1/public/lm/lmbx10.pfb" 1543696176 121021 1bf809ce4a594679006bd72263eba59b ""
  "/usr/share/texmf-dist/fonts/type1/public/lm/lmmi10.pfb" 1543696176 30388 702fae6a5f0e6e9c48a1d872b442ffcf ""
  "/usr/share/texmf-dist/fonts/type1/public/lm/lmmi8.pfb" 1543696176 30635 833ec815d446ec453a4913fc26d24cbc ""
  "/usr/share/texmf-dist/fonts/type1/public/lm/lmr10.pfb" 1543696176 119235 f35b44530a1d90eb90fe15d9cba67ea0 ""
  "/usr/share/texmf-dist/fonts/type1/public/lm/lmr12.pfb" 1543696176 113634 f99c44d58bae0863375faf0e1d74d612 ""
  "/usr/share/texmf-dist/fonts/type1/public/lm/lmr6.pfb" 1543696176 123394 d390152bb30feeb496aaaa93299ee9ba ""
  "/usr/share/texmf-dist/fonts/type1/public/lm/lmr8.pfb" 1543696176 122174 a7a08406857c9530a0320a2517f60370 ""
  "/usr/share/texmf-dist/fonts/type1/public/lm/lmr9.pfb" 1543696176 121065 50bbfa703ce7e11638752ef5a6d120c7 ""
  "/usr/share/texmf-dist/fonts/type1/public/lm/lmss10.pfb" 1543696176 97408 f595704ec2a07246c2d6f7b602587452 ""
  "/usr/share/texmf-dist/fonts/type1/public/lm/lmss12.pfb" 1543696176 96107 daf52840b555e3b38f9679b629b5e2df ""
  "/usr/share/texmf-dist/fonts/type1/public/lm/lmss17.pfb" 1543696176 97155 77b0a2ea02ee9c950117adae5f41f9c9 ""
  "/usr/share/texmf-dist/fonts/type1/public/lm/lmssbx10.pfb" 1543696176 119663 e82fa1a58f98ccd89bdbd77311ac9cf1 ""
  "/usr/share/texmf-dist/fonts/type1/public/lm/lmsy10.pfb" 1543696176 27863 09ce3735688ffde955e72da27c95b61a ""
  "/usr/share/texmf-dist/fonts/type1/public/lm/lmsy8.pfb" 1543696176 27802 5c876bb2c4040caaf035d60bd74a86bd ""
  "/usr/share/texmf-dist/tex/context/base/mkii/supp-pdf.mkii" 1543696176 71627 94eb9990bed73c364d7f53f960cc8c5b ""
  "/usr/share/texmf-dist/tex/generic/babel-english/english.ldf" 1543696176 7008 9ff5fdcc865b01beca2b0fe4a46231d4 ""
  "/usr/share/texmf-dist/tex/generic/babel-german/ngerman.ldf" 1543696176 2164 bdfa568c4c335949b9158124b5e46ea4 ""
  "/usr/share/texmf-dist/tex/generic/babel-german/ngermanb.ldf" 1543696176 7556 5ff33c3f39447b0929deaef97fb3723c ""
  "/usr/share/texmf-dist/tex/generic/babel/babel.def" 1543696176 74097 730193adbb112990f38051a05f35ac11 ""
  "/usr/share/texmf-dist/tex/generic/babel/babel.sty" 1543696176 16329 4c42e43c85185e6cb0936a628ade375c ""
  "/usr/share/texmf-dist/tex/generic/babel/switch.def" 1543696176 13310 fcb0ad08386d450f0c718feed9fe2fee ""
  "/usr/share/texmf-dist/tex/generic/babel/txtbabel.def" 1543696176 7435 6c566fc19b3503b2b2da8bb4550f2b58 ""
  "/usr/share/texmf-dist/tex/generic/ifxetex/ifxetex.sty" 1543696176 1458 43ab4710dc82f3edeabecd0d099626b2 ""
  "/usr/share/texmf-dist/tex/generic/oberdiek/etexcmds.sty" 1543696176 7612 729a8cc22a1ee0029997c7f74717ae05 ""
  "/usr/share/texmf-dist/tex/generic/oberdiek/gettitlestring.sty" 1543696176 8237 3b62ef1f7e2c23a328c814b3893bc11f ""
  "/usr/share/texmf-dist/tex/generic/oberdiek/hobsub-generic.sty" 1543696176 185392 b99a6d53180e04300c35e18725f31231 ""
  "/usr/share/texmf-dist/tex/generic/oberdiek/hobsub-hyperref.sty" 1543696176 70864 bcd5b216757bd619ae692a151d90085d ""
  "/usr/share/texmf-dist/tex/generic/oberdiek/ifluatex.sty" 1543696176 7324 2310d1247db0114eb4726807c8837a0e ""
  "/usr/share/texmf-dist/tex/generic/oberdiek/ifpdf.sty" 1543696176 1300 96620a7d94bc0ceb261d968770ce8315 ""
  "/usr/share/texmf-dist/tex/generic/oberdiek/ifvtex.sty" 1543696176 6797 90b7f83b0ad46826bc16058b1e3d48df ""
  "/usr/share/texmf-dist/tex/generic/oberdiek/infwarerr.sty" 1543696176 8253 473e0e41f9adadb1977e8631b8f72ea6 ""
  "/usr/share/texmf-dist/tex/generic/oberdiek/kvdefinekeys.sty" 1543696176 5152 b67a3a964ad9851e095110c854a1d461 ""
  "/usr/share/texmf-dist/tex/generic/oberdiek/kvsetkeys.sty" 1543696176 14040 ac8866aac45982ac84021584b0abb252 ""
  "/usr/share/texmf-dist/tex/generic/oberdiek/ltxcmds.sty" 1543696176 18425 5b3c0c59d76fac78978b5558e83c1f36 ""
  "/usr/share/texmf-dist/tex/generic/oberdiek/pdftexcmds.sty" 1543696176 20457 0d2e642faacbb41c9d72690f8cc529cd ""
  "/usr/share/texmf-dist/tex/generic/oberdiek/stringenc.sty" 1543696176 21411 4c6135fd98dd4f5499becbfc9a323deb ""
  "/usr/share/texmf-dist/tex/generic/xkeyval/xkeyval.tex" 1543696176 19231 26434a5656c684f5ffb1f26f98006baa ""
  "/usr/share/texmf-dist/tex/generic/xkeyval/xkvutils.tex" 1543696176 7677 6f5ce7c1124cad7ec57d05b2562bd8fe ""
  "/usr/share/texmf-dist/tex/latex/algorithmicx/algorithmicx.sty" 1543675473 26750 ce139c05a983e19ddca355b43e29c395 ""
  "/usr/share/texmf-dist/tex/latex/algorithmicx/algpseudocode.sty" 1543675473 3457 d9077efe6b74c5a094199256af8d7d9a ""
  "/usr/share/texmf-dist/tex/latex/algorithms/algorithm.sty" 1543675473 3249 15763257e50278eef5db1952ccde229c ""
  "/usr/share/texmf-dist/tex/latex/amsfonts/amsfonts.sty" 1543696176 5949 3f3fd50a8cc94c3d4cbf4fc66cd3df1c ""
  "/usr/share/texmf-dist/tex/latex/amsfonts/amssymb.sty" 1543696176 13829 94730e64147574077f8ecfea9bb69af4 ""
  "/usr/share/texmf-dist/tex/latex/amsfonts/umsa.fd" 1543696176 961 6518c6525a34feb5e8250ffa91731cff ""
  "/usr/share/texmf-dist/tex/latex/amsfonts/umsb.fd" 1543696176 961 d02606146ba5601b5645f987c92e6193 ""
  "/usr/share/texmf-dist/tex/latex/amsmath/amsbsy.sty" 1543696176 2211 ca7ce284ab93c8eecdc6029dc5ccbd73 ""
  "/usr/share/texmf-dist/tex/latex/amsmath/amsgen.sty" 1543696176 4161 7f6eb9092061a11f87d08ed13515b48d ""
  "/usr/share/texmf-dist/tex/latex/amsmath/amsmath.sty" 1543696176 84354 7292177bb735c466b78634ee4efd537e ""
  "/usr/share/texmf-dist/tex/latex/amsmath/amsopn.sty" 1543696176 4116 32e6abd27229755a83a8b7f18e583890 ""
  "/usr/share/texmf-dist/tex/latex/amsmath/amstext.sty" 1543696176 2432 8ff93b1137020e8f21930562a874ae66 ""
  "/usr/share/texmf-dist/tex/latex/base/bk11.clo" 1543696176 8149 0aff08c5ad7a920da4350890cf777901 ""
  "/usr/share/texmf-dist/tex/latex/base/book.cls" 1543696176 22947 d68aea619e8266075ec20ac04d0b9880 ""
  "/usr/share/texmf-dist/tex/latex/base/exscale.sty" 1543696176 2441 8ef26fa36de65c33c3991fc5aa2dc364 ""
  "/usr/share/texmf-dist/tex/latex/base/fontenc.sty" 1543696176 4573 ae83473dfe6aea3508ab88d22c4457b2 ""
  "/usr/share/texmf-dist/tex/latex/base/ifthen.sty" 1543696176 5161 c004ea5a189d4bdcf42e86754ad75a58 ""
  "/usr/share/texmf-dist/tex/latex/base/inputenc.sty" 1543696176 5052 f2525dfd6e503dc383e90b568c6c9f02 ""
  "/usr/share/texmf-dist/tex/latex/base/t1enc.def" 1543696176 10008 3208fbcdd7b3f5dd0dda02e6507bf38c ""
  "/usr/share/texmf-dist/tex/latex/base/textcomp.sty" 1543696176 16156 c88fab7ab9716ccedc3dc1fa0f1f22da ""
  "/usr/share/texmf-dist/tex/latex/base/ts1cmr.fd" 1543696176 2433 cdefd2509a12ba58001f2024f63aae9a ""
  "/usr/share/texmf-dist/tex/latex/base/ts1enc.def" 1543696176 7769 97b639552068544f7c98d557abb19f41 ""
  "/usr/share/texmf-dist/tex/latex/base/ts1enc.dfu" 1543696176 4973 a0ebe45f171b33c2df4e84416140511f ""
  "/usr/share/texmf-dist/tex/latex/biblatex/bbx/numeric-comp.bbx" 1543672767 92 7cdbb04a1e32fba0fbb91b6e6d123497 ""
  "/usr/share/texmf-dist/tex/latex/biblatex/bbx/numeric.bbx" 1543672767 1672 30daac53a3b9ecb172365211fcaa2ba2 ""
  "/usr/share/texmf-dist/tex/latex/biblatex/bbx/standard.bbx" 1543672767 24313 ff3a9a84addb7f5de285c708da15a926 ""
  "/usr/share/texmf-dist/tex/latex/biblatex/biblatex.cfg" 1543672767 69 249fa6df04d948e51b6d5c67bea30c42 ""
  "/usr/share/texmf-dist/tex/latex/biblatex/biblatex.def" 1543672767 88160 3e5d4380c6193d760acb623119b619af ""
  "/usr/share/texmf-dist/tex/latex/biblatex/biblatex.sty" 1543672767 472411 c7eee3c619de18fb38cb898ed15ea61d ""
  "/usr/share/texmf-dist/tex/latex/biblatex/blx-compat.def" 1543672767 13194 9fbd4a8c96337f2861e1135f26105b22 ""
  "/usr/share/texmf-dist/tex/latex/biblatex/blx-dm.def" 1543672767 30950 d8285648220779301a06160f7b5b9b1b ""
  "/usr/share/texmf-dist/tex/latex/biblatex/cbx/numeric-comp.cbx" 1543672767 6933 b3e0c145994ba31d1bbcf77e8c5266aa ""
  "/usr/share/texmf-dist/tex/latex/biblatex/lbx/english.lbx" 1543672767 37421 612a874b5d89d3e451f56bb8a6ac9615 ""
  "/usr/share/texmf-dist/tex/latex/biblatex/lbx/german.lbx" 1543672767 31969 85ee28750f096a5af49dc49511d7abd9 ""
  "/usr/share/texmf-dist/tex/latex/biblatex/lbx/ngerman.lbx" 1543672767 520 79db3ad588d8a32d9a5aa90a48bd8364 ""
  "/usr/share/texmf-dist/tex/latex/caption/caption.sty" 1543696176 68576 86bbc6bd5a409b3c353fccc1a815fa5b ""
  "/usr/share/texmf-dist/tex/latex/caption/caption3.sty" 1543696176 68510 943558eecf41da4e76fc614fd7f5deff ""
  "/usr/share/texmf-dist/tex/latex/cmap/cmap.sty" 1543696176 2883 427a7f7cb58418a0394dbd85c80668f6 ""
  "/usr/share/texmf-dist/tex/latex/cmap/ot1.cmap" 1543696176 1207 4e0d96772f0d338847cbfb4eca683c81 ""
  "/usr/share/texmf-dist/tex/latex/cmap/t1.cmap" 1543696176 1938 beaa4a8467aa0074076e0e19f2992e29 ""
  "/usr/share/texmf-dist/tex/latex/csquotes/csquotes.cfg" 1543674949 7068 06f8d141725d114847527a66439066b6 ""
  "/usr/share/texmf-dist/tex/latex/csquotes/csquotes.def" 1543674949 19672 064123762b65f5f6167cd01f4155a8c2 ""
  "/usr/share/texmf-dist/tex/latex/csquotes/csquotes.sty" 1543674949 61418 e956203a0a8d7a811e2100c0ecfdfcac ""
  "/usr/share/texmf-dist/tex/latex/datetime/datetime-defaults.sty" 1543674949 4105 4c80eaed8cd4f9a80cc6244c0adeb81f ""
  "/usr/share/texmf-dist/tex/latex/datetime/datetime.sty" 1543674949 27587 b023ffe1328fa89e7f133201d87029de ""
  "/usr/share/texmf-dist/tex/latex/datetime/dt-ngerman.def" 1543674949 3809 84ed43b95faa0ba29bc86f8bb7fb1d5e ""
  "/usr/share/texmf-dist/tex/latex/eepic/epic.sty" 1543675236 25873 0e813d2f6e266780f0cedef5eb5e2525 ""
  "/usr/share/texmf-dist/tex/latex/enumitem/enumitem.sty" 1543674949 49620 efae1df9a29a357a1047f856275eae15 ""
  "/usr/share/texmf-dist/tex/latex/eso-pic/eso-pic.sty" 1543696176 11991 c1669f88e13f8bb6243df144e456b477 ""
  "/usr/share/texmf-dist/tex/latex/etoolbox/etoolbox.sty" 1543696176 43865 f83cc2fa3767abdb988c7d2cd17c02bf ""
  "/usr/share/texmf-dist/tex/latex/eurosym/eurosym.sty" 1543696176 3028 8faeef64adee9b964b5e7f5e45921024 ""
  "/usr/share/texmf-dist/tex/latex/fancyhdr/fancyhdr.sty" 1543696176 10663 d7fcc0dc4f35e8998b8cfeef8407d37d ""
  "/usr/share/texmf-dist/tex/latex/float/float.sty" 1543696176 6749 16d2656a1984957e674b149555f1ea1d ""
  "/usr/share/texmf-dist/tex/latex/fmtcount/fc-english.def" 1543674949 14302 ff67e93e96db6e39dc09790d67901c24 ""
  "/usr/share/texmf-dist/tex/latex/fmtcount/fc-german.def" 1543674949 13104 083d8c66c4cb9effd96015eb074fc0cb ""
  "/usr/share/texmf-dist/tex/latex/fmtcount/fc-germanb.def" 1543674949 3408 b80bbcceca1ea045a5fbca41a50e04dd ""
  "/usr/share/texmf-dist/tex/latex/fmtcount/fc-ngerman.def" 1543674949 3431 32ba7c798229c72f8300f553c2e794bf ""
  "/usr/share/texmf-dist/tex/latex/fmtcount/fc-ngermanb.def" 1543674949 3449 35b209be240cecc4eff70f49fdcf06d7 ""
  "/usr/share/texmf-dist/tex/latex/fmtcount/fcnumparser.sty" 1543674949 12338 3f721c3c576d5ed676913eb44445cd68 ""
  "/usr/share/texmf-dist/tex/latex/fmtcount/fcprefix.sty" 1543674949 12047 8f869eb09b84f8680cbfd88467cd3e7d ""
  "/usr/share/texmf-dist/tex/latex/fmtcount/fmtcount.sty" 1543674949 30770 0ac75d31ce75ec4ef54f1efe1c0ba7ba ""
  "/usr/share/texmf-dist/tex/latex/footmisc/footmisc.sty" 1543674949 25776 d28bd6d82f168f8cb2268584b67a2a98 ""
  "/usr/share/texmf-dist/tex/latex/geometry/geometry.sty" 1543696176 41645 0653033a985e06c69a2a9cea9a95e31a ""
  "/usr/share/texmf-dist/tex/latex/graphics-cfg/color.cfg" 1543696176 1213 620bba36b25224fa9b7e1ccb4ecb76fd ""
  "/usr/share/texmf-dist/tex/latex/graphics-cfg/graphics.cfg" 1543696176 1224 978390e9c2234eab29404bc21b268d1e ""
  "/usr/share/texmf-dist/tex/latex/graphics-def/pdftex.def" 1543696176 17334 520b9b85ad8a2a48eda3f643e27a5179 ""
  "/usr/share/texmf-dist/tex/latex/graphics/graphics.sty" 1543696176 15272 5a97061616e0c8b2aa79c6615ff769f4 ""
  "/usr/share/texmf-dist/tex/latex/graphics/graphicx.sty" 1543696176 9063 d0a305975932762117cd1f06a582f896 ""
  "/usr/share/texmf-dist/tex/latex/graphics/keyval.sty" 1543696176 2591 6404d0c7d28505fb38ce0d86c2e28ae7 ""
  "/usr/share/texmf-dist/tex/latex/graphics/lscape.sty" 1543696176 1754 456e1ddf48323a62f9e0fbc379de63a3 ""
  "/usr/share/texmf-dist/tex/latex/graphics/trig.sty" 1543696176 3977 cb9221976ed8a183afad65b59aa8629a ""
  "/usr/share/texmf-dist/tex/latex/hyperref/hpdftex.def" 1543696176 51737 d352883b1cf2d309b61f0be421ee3009 ""
  "/usr/share/texmf-dist/tex/latex/hyperref/hyperref.sty" 1543696176 236385 0c1f990d0a1c996b78144392442091fb ""
  "/usr/share/texmf-dist/tex/latex/hyperref/nameref.sty" 1543696176 12949 81e4e808884a8f0e276b69410e234656 ""
  "/usr/share/texmf-dist/tex/latex/hyperref/pd1enc.def" 1543696176 14098 546dd05d655ce69bf51ef180b7d8a1b1 ""
  "/usr/share/texmf-dist/tex/latex/hyperref/puenc.def" 1543696176 122411 410f5833d432ea9aaa0d2418c0e63c56 ""
  "/usr/share/texmf-dist/tex/latex/ifmtarg/ifmtarg.sty" 1543674949 318 019510c713feab56160631df4423d2aa ""
  "/usr/share/texmf-dist/tex/latex/koma-script/scrbase.sty" 1543696176 78713 21fa595d10580cf9b52a1cc8a948bad2 ""
  "/usr/share/texmf-dist/tex/latex/koma-script/scrlfile.sty" 1543696176 15832 1875b5eb5907322dec9773b803fc31b8 ""
  "/usr/share/texmf-dist/tex/latex/koma-script/tocbasic.sty" 1543696176 81295 9fa22cadea01b9df912818b6c2d834be ""
  "/usr/share/texmf-dist/tex/latex/latexconfig/epstopdf-sys.cfg" 1543696176 678 4792914a8f45be57bb98413425e4c7af ""
  "/usr/share/texmf-dist/tex/latex/latexconfig/hyperref.cfg" 1543696176 235 6031e5765137be07eed51a510b2b8fb7 ""
  "/usr/share/texmf-dist/tex/latex/listings/listings.cfg" 1543696176 1828 dcfaf5610ea22a61c7baac6f2ca3cb43 ""
  "/usr/share/texmf-dist/tex/latex/listings/listings.sty" 1543696176 80394 a25e563baccecba00b03b4a462eb4141 ""
  "/usr/share/texmf-dist/tex/latex/listings/lstmisc.sty" 1543696176 77021 1c90ba86bdf6da80a6b661f51d7f0175 ""
  "/usr/share/texmf-dist/tex/latex/lm/lmodern.sty" 1543696176 1606 c17281c7cff2bbd7ff0173e1433487ec ""
  "/usr/share/texmf-dist/tex/latex/lm/omllmm.fd" 1543696176 888 44447a3a3af84a22454ef89500942d93 ""
  "/usr/share/texmf-dist/tex/latex/lm/omslmsy.fd" 1543696176 805 af340a8260c447aa315cfc740ff0152f ""
  "/usr/share/texmf-dist/tex/latex/lm/ot1lmr.fd" 1543696176 1880 bae7b659316f7344a86218ad38b01d91 ""
  "/usr/share/texmf-dist/tex/latex/lm/t1lmr.fd" 1543696176 1865 afbfccbe7fda9c2dc5078ad7c486bbed ""
  "/usr/share/texmf-dist/tex/latex/lm/t1lmss.fd" 1543696176 1639 ba1c66ef577aa5cadc2c0fdc691a26ee ""
  "/usr/share/texmf-dist/tex/latex/logreq/logreq.def" 1543672767 1620 fb1c32b818f2058eca187e5c41dfae77 ""
  "/usr/share/texmf-dist/tex/latex/logreq/logreq.sty" 1543672767 6187 b27afc771af565d3a9ff1ca7d16d0d46 ""
  "/usr/share/texmf-dist/tex/latex/mmap/oml.cmap" 1543674949 1866 c1c12138091b4a8edd4a24a940e6f792 ""
  "/usr/share/texmf-dist/tex/latex/mmap/oms.cmap" 1543674949 2370 3b1f71b14b974f07cef532db09ae9ee0 ""
  "/usr/share/texmf-dist/tex/latex/mmap/omx.cmap" 1543674949 3001 252c8ca42b06a22cb1a11c0e47790c6e ""
  "/usr/share/texmf-dist/tex/latex/moreverb/moreverb.sty" 1543674949 5863 07095464939df437145876547e980c96 ""
  "/usr/share/texmf-dist/tex/latex/natbib/bibentry.sty" 1543696176 3400 e000bb2fc43fc077e107f62f8c25613e ""
  "/usr/share/texmf-dist/tex/latex/oberdiek/auxhook.sty" 1543696176 3834 4363110eb0ef1eb2b71c8fcbcdb6c357 ""
  "/usr/share/texmf-dist/tex/latex/oberdiek/epstopdf-base.sty" 1543696176 12095 5337833c991d80788a43d3ce26bd1c46 ""
  "/usr/share/texmf-dist/tex/latex/oberdiek/epstopdf.sty" 1543696176 4167 fc50b4e5b185008bb9308b1ea4ce64d4 ""
  "/usr/share/texmf-dist/tex/latex/oberdiek/grfext.sty" 1543696176 7075 2fe3d848bba95f139de11ded085e74aa ""
  "/usr/share/texmf-dist/tex/latex/oberdiek/hypcap.sty" 1543696176 3720 63669daeb0b67d5fbec899824e2f1491 ""
  "/usr/share/texmf-dist/tex/latex/oberdiek/kvoptions.sty" 1543696176 22417 1d9df1eb66848aa31b18a593099cf45c ""
  "/usr/share/texmf-dist/tex/latex/oberdiek/listingsutf8.sty" 1543696176 5016 16c89aa2f0c0a9f50f7c446b2d6a60be ""
  "/usr/share/texmf-dist/tex/latex/oberdiek/pdflscape.sty" 1543696176 6688 c84de1eae6cda82865a6d3d09e339ec9 ""
  "/usr/share/texmf-dist/tex/latex/oberdiek/rerunfilecheck.sty" 1543696176 9581 023642318cef9f4677efe364de1e2a27 ""
  "/usr/share/texmf-dist/tex/latex/overpic/overpic.sty" 1543674949 3201 093a95b266e6a5ba844a7e6d7fb7a297 ""
  "/usr/share/texmf-dist/tex/latex/pdfpages/pdfpages.sty" 1543696176 52989 80e784f009ef46fd8220535bd14a7d82 ""
  "/usr/share/texmf-dist/tex/latex/pdfpages/pppdftex.def" 1543696176 6364 ca3f15bd79c5439d528d1a286b3405c1 ""
  "/usr/share/texmf-dist/tex/latex/pict2e/p2e-pdftex.def" 1543675236 1168 efb94e82cc1584d4f62679f3487b5339 ""
  "/usr/share/texmf-dist/tex/latex/pict2e/pict2e.cfg" 1543675236 1920 2185073db458618f4a8a794158cf3681 ""
  "/usr/share/texmf-dist/tex/latex/pict2e/pict2e.sty" 1543675236 27382 d61cb379c145d74974b90e517d3dae46 ""
  "/usr/share/texmf-dist/tex/latex/subdepth/subdepth.sty" 1543674949 2752 27cbb917050374650a403a2aceb73263 ""
  "/usr/share/texmf-dist/tex/latex/titlesec/titlesec.sty" 1543674949 37387 afa86533e532701faf233f3f592c61e0 ""
  "/usr/share/texmf-dist/tex/latex/tools/calc.sty" 1543696176 10212 357072c1d20578a30d6387d8a22e72ab ""
  "/usr/share/texmf-dist/tex/latex/tools/verbatim.sty" 1543696176 7262 cf84171354dfa1855684c0946ff000f1 ""
  "/usr/share/texmf-dist/tex/latex/tools/xspace.sty" 1543696176 4542 5251001fb2c96205905dbac86c51c5ab ""
  "/usr/share/texmf-dist/tex/latex/upquote/upquote.sty" 1543674949 1048 517e01cde97c1c0baf72e69d43aa5a2e ""
  "/usr/share/texmf-dist/tex/latex/url/url.sty" 1543696176 12796 8edb7d69a20b857904dd0ea757c14ec9 ""
  "/usr/share/texmf-dist/tex/latex/xcolor/xcolor.sty" 1543696176 55589 34128738f682d033422ca125f82e5d62 ""
  "/usr/share/texmf-dist/tex/latex/xifthen/xifthen.sty" 1543674949 5689 1bfa68243e89a54479e7d0580773c57e ""
  "/usr/share/texmf-dist/tex/latex/xkeyval/xkeyval.sty" 1543696176 4962 9c1069474ff71dbc47d5006555e352d3 ""
  "/usr/share/texmf-dist/web2c/texmf.cnf" 1543696176 33301 a3134070eacafb10b1f371612ce2650d ""
  "/var/lib/texmf/fonts/map/pdftex/updmap/pdftex.map" 1543761258 2842348 edc1b8bc31b681518c3c925a1db894a8 ""
  "/var/lib/texmf/web2c/pdftex/pdflatex.fmt" 1543761247 7910428 dc12e06563e2c69e1d0550650b9ce3c2 ""
  "back/printbox.aux" 0 -1 0 ""
  "back/printbox.tex" 1538682373 246 2be7ee38cee70bf6c6c07101f4a525a9 ""
  "chapters/closing.aux" 0 -1 0 ""
  "chapters/closing.tex" 1539103834 46 2bac40c112eeb0a7e1d86c32af433de4 ""
  "chapters/conclusion.aux" 0 -1 0 ""
  "chapters/conclusion.tex" 1540406479 58 46c6071fb5992f5e0ad0c4c7d4e82496 ""
  "chapters/equipment.aux" 0 -1 0 ""
  "chapters/equipment.tex" 1543846902 178 0891abd4f2fdea0db96e9d256beb65b3 ""
  "chapters/fundamentals.aux" 0 -1 0 ""
  "chapters/fundamentals.tex" 1543846868 7947 b3925c9208ba6dd8771a8b191cc84e10 ""
  "chapters/implementation.aux" 0 -1 0 ""
  "chapters/implementation.tex" 1543848071 2444 f3d682028059f345b9320638817d5f2c ""
  "chapters/introduction.aux" 0 -1 0 ""
  "chapters/introduction.tex" 1543943802 5512 0b63fcdeb6d5a1e4ca02ba9385f818af ""
  "chapters/test.aux" 0 -1 0 ""
  "chapters/test.tex" 1543847178 51 69ac12276bbcfd3f6477f533569d31af ""
  "chapters/thethesis.aux" 0 -1 0 ""
  "chapters/thethesis.tex" 1543847055 219 fa73cf0f64e43bcbfe13bfffb8a11fe6 ""
  "front/abstract.aux" 0 -1 0 ""
  "front/abstract.tex" 1540406479 706 4dbf6885a2a92807d18cbd81b42db826 ""
  "front/kurzfassung.aux" 0 -1 0 ""
  "front/kurzfassung.tex" 1538682373 139 23d9cd300d6643cbb3ae8889a472df2d ""
  "hgb.sty" 1538682373 9359 6841184450c498a27dfad736fde87a72 ""
  "hgbabbrev.sty" 1538682373 1857 2d969eeb2d8c3c4ebae9d652413c33a9 ""
  "hgbalgo.sty" 1538682373 5498 2ee6d22a6d4ef7410153cbdc8d840129 ""
  "hgbbib.sty" 1538682373 5370 81a6b087fe78355956d805d048e00b38 ""
  "hgbheadings.sty" 1538682373 1154 42b6b3006ce9443c50176b93f94eec2b ""
  "hgblistings.sty" 1538682373 5717 0613f9e6668f2747154f95d9a8d6c54e ""
  "hgbmath.sty" 1538682373 879 219286d2359d47ceac0651983d0b8d62 ""
  "hgbthesis.cls" 1538682373 16593 7441d37f592c4ccf58211d0beb9339de ""
  "images/../pictures/amazon_corridor.png" 1543943277 698776 e33d60249a63d44307d0c8b7cda71788 ""
  "images/../pictures/amazon_meetingroom.png" 1543943186 694932 b2b1f010d576a74943b3766b06a690b6 ""
  "images/../pictures/amazon_outside.png" 1543943126 491954 2ad5a666401f4139121ba27888308280 ""
  "images/../pictures/vision_corridor.png" 1543842521 221440 dbb60751c830bf7cfe496f7e69348d28 ""
  "images/../pictures/vision_demo.png" 1543842406 256166 b94737386346bc08b876642d3fa3fb13 ""
  "images/../pictures/vision_outside.png" 1543842627 294903 7933ea0e096a25dc970d59b8dde4b583 ""
  "images/logo.pdf" 1538682373 68815 85fe35cf7b34a49c1748debcfb027869 ""
  "main.aux" 1543943997 8 a94a2480d3289e625eea47cd1b285758 ""
  "main.bbl" 0 -1 0 "biber main"
  "main.out" 0 -1 0 ""
  "main.run.xml" 0 -1 0 ""
  "main.tex" 1543847155 3215 d957aa50a94ec1202cae3ed595be23f4 ""
  (generated)
  "main.out"
  "chapters/introduction.aux"
  "main.log"
  "chapters/test.aux"
  "chapters/implementation.aux"
  "chapters/closing.aux"
  "chapters/conclusion.aux"
  "main.bcf"
  "chapters/fundamentals.aux"
  "back/printbox.aux"
  "main.toc"
  "chapters/thethesis.aux"
  "front/abstract.aux"
  "front/kurzfassung.aux"
  "main.pdf"
  "chapters/equipment.aux"
  "main.aux"
  "main.run.xml"
